{
    "code": 0,
    "message": "success",
    "data": {
        "nwords": [
            {
                "word_id": 10488,
                "word": "coalition",
                "created_at": "2024-06-08T19:33:26.976+08:00",
                "last_review": "2024-08-06T21:55:20.933+08:00",
                "review_count": 3,
                "new_word_id": 157831706
            },
            {
                "word_id": 2597,
                "word": "investor",
                "created_at": "2024-06-08T19:34:55.557+08:00",
                "last_review": "2024-08-06T21:55:33.866+08:00",
                "review_count": 3,
                "new_word_id": 157831922
            },
            {
                "word_id": 10206,
                "word": "Latino",
                "created_at": "2024-06-08T19:35:24.943+08:00",
                "last_review": "2024-08-06T21:55:42.602+08:00",
                "review_count": 3,
                "new_word_id": 157831992
            },
            {
                "word_id": 2207,
                "word": "colleague",
                "created_at": "2024-06-08T19:36:12.199+08:00",
                "last_review": "2024-08-06T21:55:51.243+08:00",
                "review_count": 3,
                "new_word_id": 157832123
            },
            {
                "word_id": 8106,
                "word": "insurance",
                "created_at": "2024-06-08T19:37:30.863+08:00",
                "last_review": "2024-08-06T21:56:00.067+08:00",
                "review_count": 3,
                "new_word_id": 157832352
            },
            {
                "word_id": 2856,
                "word": "astronomer",
                "created_at": "2024-06-08T19:37:44.312+08:00",
                "last_review": "2024-08-06T21:56:08.587+08:00",
                "review_count": 3,
                "new_word_id": 157832386
            },
            {
                "word_id": 3393,
                "word": "desirable",
                "created_at": "2024-06-08T19:38:14.240+08:00",
                "last_review": "2024-08-06T21:56:20.652+08:00",
                "review_count": 3,
                "new_word_id": 157832470
            },
            {
                "word_id": 10288,
                "word": "eventual",
                "created_at": "2024-06-08T19:39:00.600+08:00",
                "last_review": "2024-08-06T21:56:29.018+08:00",
                "review_count": 3,
                "new_word_id": 157832606
            },
            {
                "word_id": 6270,
                "word": "collision",
                "created_at": "2024-06-08T19:39:23.800+08:00",
                "last_review": "2024-08-06T21:56:38.964+08:00",
                "review_count": 3,
                "new_word_id": 157832709
            },
            {
                "word_id": 2644,
                "word": "herd",
                "created_at": "2024-06-08T19:39:45.320+08:00",
                "last_review": "2024-08-06T21:56:45.489+08:00",
                "review_count": 3,
                "new_word_id": 157832778
            },
            {
                "word_id": 10061,
                "word": "acoustics",
                "created_at": "2024-06-08T19:39:48.499+08:00",
                "last_review": "2024-08-06T21:56:51.893+08:00",
                "review_count": 3,
                "new_word_id": 157832785
            },
            {
                "word_id": 9396,
                "word": "entrepreneur",
                "created_at": "2024-06-08T19:40:00.049+08:00",
                "last_review": "2024-08-06T21:57:14.051+08:00",
                "review_count": 3,
                "new_word_id": 157832819
            },
            {
                "word_id": 104,
                "word": "agricultural",
                "created_at": "2024-06-08T19:40:10.211+08:00",
                "last_review": "2024-08-06T21:57:29.420+08:00",
                "review_count": 3,
                "new_word_id": 157832845
            },
            {
                "word_id": 4242,
                "word": "electromagnetic",
                "created_at": "2024-06-08T19:40:22.256+08:00",
                "last_review": "2024-08-06T21:57:44.226+08:00",
                "review_count": 3,
                "new_word_id": 157832879
            },
            {
                "word_id": 2469,
                "word": "amongst",
                "created_at": "2024-06-08T19:40:40.766+08:00",
                "last_review": "2024-08-06T21:57:55.479+08:00",
                "review_count": 3,
                "new_word_id": 157832922
            },
            {
                "word_id": 2185,
                "word": "satellite",
                "created_at": "2024-06-08T19:40:48.879+08:00",
                "last_review": "2024-08-06T21:58:09.560+08:00",
                "review_count": 3,
                "new_word_id": 157832947
            },
            {
                "word_id": 10968,
                "word": "vernacular",
                "created_at": "2024-06-08T19:40:59.423+08:00",
                "last_review": "2024-08-06T21:58:17.544+08:00",
                "review_count": 3,
                "new_word_id": 157832980
            },
            {
                "word_id": 9380,
                "word": "repetition",
                "created_at": "2024-06-08T19:41:24.150+08:00",
                "last_review": "2024-08-06T21:58:32.399+08:00",
                "review_count": 3,
                "new_word_id": 157833053
            },
            {
                "word_id": 24488,
                "word": "totality",
                "created_at": "2024-06-08T19:41:33.394+08:00",
                "last_review": "2024-08-06T21:58:38.953+08:00",
                "review_count": 3,
                "new_word_id": 157833076
            },
            {
                "word_id": 7341,
                "word": "debris",
                "created_at": "2024-06-08T19:48:05.964+08:00",
                "last_review": "2024-08-06T20:22:21.011+08:00",
                "review_count": 2,
                "new_word_id": 157834264
            }
        ],
        "page_info": {
            "current_page": 1,
            "next_page": 2,
            "prev_page": null,
            "total_pages": 9,
            "total_count": 180
        }
    }
}